{
  "type": "farmersdelight:cutting",
  "ingredients": [
    {
      "item": "farmersdelight:brown_mushroom_colony"
    }
  ],
  "tool": {
    "tag": "fabric:tools/knives"
  },
  "result": [
    {
      "item": "minecraft:brown_mushroom",
      "count": 5
    }
  ]
}