{
  "type": "farmersdelight:cutting",
  "ingredients": [
    {
      "item": "minecraft:cake"
    }
  ],
  "tool": {
    "tag": "fabric:tools/knives"
  },
  "result": [
    {
      "item": "farmersdelight:cake_slice",
      "count": 7
    }
  ]
}