{
  "type": "farmersdelight:cutting",
  "ingredients": [
    {
      "item": "farmersdelight:rice_panicle"
    }
  ],
  "tool": {
    "tag": "fabric:tools/knives"
  },
  "result": [
    {
      "item": "farmersdelight:rice"
    },
    {
      "item": "farmersdelight:straw"
    }
  ]
}